module gitlab.com/vaardan/ytmonetizer

go 1.18

require (
	cloud.google.com/go/vision v1.2.0
	github.com/googleapis/gax-go/v2 v2.1.1
	github.com/johnfercher/maroto v0.37.0
	github.com/stretchr/testify v1.7.2
	go.uber.org/zap v1.21.0
	google.golang.org/genproto v0.0.0-20220615141314-f1464d18c36b
	google.golang.org/grpc v1.47.0
)

require (
	cloud.google.com/go v0.100.2 // indirect
	cloud.google.com/go/compute v1.3.0 // indirect
	github.com/benbjohnson/clock v1.1.0 // indirect
	github.com/boombuler/barcode v1.0.1 // indirect
	github.com/davecgh/go-spew v1.1.1 // indirect
	github.com/golang/groupcache v0.0.0-20200121045136-8c9f03a8e57e // indirect
	github.com/golang/protobuf v1.5.2 // indirect
	github.com/google/go-cmp v0.5.7 // indirect
	github.com/google/uuid v1.1.2 // indirect
	github.com/jung-kurt/gofpdf v1.16.2 // indirect
	github.com/pmezard/go-difflib v1.0.0 // indirect
	github.com/ruudk/golang-pdf417 v0.0.0-20181029194003-1af4ab5afa58 // indirect
	github.com/stretchr/objx v0.2.0 // indirect
	go.opencensus.io v0.23.0 // indirect
	go.uber.org/atomic v1.7.0 // indirect
	go.uber.org/multierr v1.6.0 // indirect
	golang.org/x/net v0.0.0-20220127200216-cd36cc0744dd // indirect
	golang.org/x/oauth2 v0.0.0-20211104180415-d3ed0bb246c8 // indirect
	golang.org/x/sys v0.0.0-20220209214540-3681064d5158 // indirect
	golang.org/x/text v0.3.7 // indirect
	google.golang.org/api v0.70.0 // indirect
	google.golang.org/appengine v1.6.7 // indirect
	google.golang.org/protobuf v1.28.0 // indirect
	gopkg.in/yaml.v3 v3.0.1 // indirect
)
